[
    {
        "report_id": "rpt000002",
        "report_name": "100 resources under floor 26",
        "report_type": "device_data",
        "headers": "{\"client_id\":\"000ee12374684b1581a7e35c9c9756b4\",\"client_secret\":\"791240EEa71E493e856fEc07A0Cefd0D\"}",
        "query_string": "http://18.206.9.65:8080/api/system/resource-api/resources?pageSize=100&floorId=26",
        "created_by": "user0052",
        "created_datetime": "2019-05-13T08:06:04.003Z",
        "last_modified_by": "user0052",
        "last_modified_datetime": "2019-05-13T08:06:04.003Z",
        "status": "active"
    },
    {
        "report_id": "rpt000001",
        "report_name": "Instantaneous Power over All Time",
        "report_type": "device_data",
        "headers": "KYLE FILL IN Headers for API GET request",
        "query_string": "KYLE FILL IN API URL + QUERY-PARAMS: Return all device data where 'units' = 'kw'",
        "created_by": "user0052",
        "created_datetime": "2019-05-13T08:06:04.003Z",
        "last_modified_by": "user0052",
        "last_modified_datetime": "2019-05-13T08:06:04.003Z",
        "status": "active"
    },
    {
        "report_id": "rpt000003",
        "report_name": "Get 100 feedbacks foe bathroom-1702",
        "report_type": "device_data",
        "headers": "{\"client_id\":\"000ee12374684b1581a7e35c9c9756b4\",\"client_secret\":\"791240EEa71E493e856fEc07A0Cefd0D\"}",
        "query_string": "http://18.206.9.65:8080/api/system/feedback-api/feedback?pageSize=100&entityId=bathroom-1702",
        "created_by": "user0052",
        "created_datetime": "2019-05-13T08:06:04.003Z",
        "last_modified_by": "user0052",
        "last_modified_datetime": "2019-05-13T08:06:04.003Z",
        "status": "active"
    }
]